MyShell starting...
C:\Users\Alex\workspace\MyShell\bin>cd ..
C:\Users\Alex\workspace\MyShell>dir
 Volume in drive C is C
 Volume Serial Number is 6457-5983

 Directory of C:\Users\Alex\workspace\MyShell

10/08/2013  11:27 AM    <DIR>          .
10/08/2013  11:27 AM    <DIR>          ..
10/08/2013  11:27 AM               301 .classpath
10/08/2013  11:27 AM               383 .project
10/08/2013  11:27 AM    <DIR>          .settings
11/10/2014  02:45 PM    <DIR>          bin
11/13/2013  10:25 PM    <DIR>          src
               2 File(s)            684 bytes
               5 Dir(s)  192,474,701,824 bytes free
C:\Users\Alex\workspace\MyShell> history
Command History
cd ..
dir
C:\Users\Alex\workspace\MyShell>!2
 Volume in drive C is C
 Volume Serial Number is 6457-5983

 Directory of C:\Users\Alex\workspace\MyShell

10/08/2013  11:27 AM    <DIR>          .
10/08/2013  11:27 AM    <DIR>          ..
10/08/2013  11:27 AM               301 .classpath
10/08/2013  11:27 AM               383 .project
10/08/2013  11:27 AM    <DIR>          .settings
11/10/2014  02:45 PM    <DIR>          bin
11/13/2013  10:25 PM    <DIR>          src
               2 File(s)            684 bytes
               5 Dir(s)  192,474,701,824 bytes free
C:\Users\Alex\workspace\MyShell>